{
    "key": "group_589bf0dc03ef1",
    "title": "Production ACF",
    "fields": [
        {
            "key": "field_589fe66949c6c",
            "label": "Purchase",
            "name": "buy_tickets",
            "type": "select",
            "instructions": "",
            "required": 0,
            "conditional_logic": 0,
            "wrapper": {
                "width": "50",
                "class": "",
                "id": ""
            },
            "choices": {
                "buy-now": "Buy Now"
            },
            "default_value": [],
            "allow_null": 1,
            "multiple": 0,
            "ui": 0,
            "ajax": 0,
            "return_format": "value",
            "placeholder": ""
        },
        {
            "key": "field_58c9fba46c9b9",
            "label": "Button Text",
            "name": "button_text_tickets_buy",
            "type": "select",
            "instructions": "",
            "required": 0,
            "conditional_logic": 0,
            "wrapper": {
                "width": "50",
                "class": "",
                "id": ""
            },
            "choices": {
                "buy-now": "Buy Tickets",
                "reserve": "Reserve Tickets"
            },
            "default_value": [],
            "allow_null": 1,
            "multiple": 0,
            "ui": 0,
            "ajax": 0,
            "return_format": "value",
            "placeholder": ""
        },
        {
            "key": "field_58a5231a9d8e6",
            "label": "Venue and Production Info",
            "name": "",
            "type": "tab",
            "instructions": "",
            "required": 0,
            "conditional_logic": 0,
            "wrapper": {
                "width": "",
                "class": "",
                "id": ""
            },
            "placement": "left",
            "endpoint": 0
        },
        {
            "key": "field_589bf1ab525e3",
            "label": "Start Date",
            "name": "start_date",
            "type": "date_picker",
            "instructions": "",
            "required": 0,
            "conditional_logic": 0,
            "wrapper": {
                "width": "50",
                "class": "",
                "id": ""
            },
            "display_format": "d\/m\/Y",
            "return_format": "d\/m\/Y",
            "first_day": 1
        },
        {
            "key": "field_589bf1b8525e4",
            "label": "End Date",
            "name": "end_date",
            "type": "date_picker",
            "instructions": "",
            "required": 0,
            "conditional_logic": 0,
            "wrapper": {
                "width": "50",
                "class": "",
                "id": ""
            },
            "display_format": "d\/m\/Y",
            "return_format": "d\/m\/Y",
            "first_day": 1
        },
        {
            "key": "field_58a939ff1e754",
            "label": "Time Of Production",
            "name": "time_of_production",
            "type": "time_picker",
            "instructions": "",
            "required": 0,
            "conditional_logic": 0,
            "wrapper": {
                "width": "50",
                "class": "",
                "id": ""
            },
            "display_format": "g:i a",
            "return_format": "g:i a"
        },
        {
            "key": "field_58a29afc46656",
            "label": "Written By",
            "name": "written_by",
            "type": "text",
            "instructions": "",
            "required": 0,
            "conditional_logic": 0,
            "wrapper": {
                "width": "50",
                "class": "",
                "id": ""
            },
            "default_value": "",
            "placeholder": "",
            "prepend": "",
            "append": "",
            "maxlength": ""
        },
        {
            "key": "field_589bf1c3525e5",
            "label": "External Link",
            "name": "external_link",
            "type": "text",
            "instructions": "",
            "required": 0,
            "conditional_logic": 0,
            "wrapper": {
                "width": "50",
                "class": "",
                "id": ""
            },
            "default_value": "",
            "placeholder": "",
            "prepend": "",
            "append": "",
            "maxlength": ""
        },
        {
            "key": "field_589bf1db7f0d2",
            "label": "Venue",
            "name": "venue",
            "type": "text",
            "instructions": "",
            "required": 0,
            "conditional_logic": 0,
            "wrapper": {
                "width": "50",
                "class": "",
                "id": ""
            },
            "default_value": "",
            "placeholder": "",
            "prepend": "",
            "append": "",
            "maxlength": ""
        },
        {
            "key": "field_589bf1e47f0d3",
            "label": "Address",
            "name": "address",
            "type": "text",
            "instructions": "",
            "required": 0,
            "conditional_logic": 0,
            "wrapper": {
                "width": "50",
                "class": "",
                "id": ""
            },
            "default_value": "",
            "placeholder": "",
            "prepend": "",
            "append": "",
            "maxlength": ""
        },
        {
            "key": "field_58a5233f9d8e7",
            "label": "Directed By",
            "name": "directed_by",
            "type": "text",
            "instructions": "",
            "required": 0,
            "conditional_logic": 0,
            "wrapper": {
                "width": "50",
                "class": "",
                "id": ""
            },
            "default_value": "",
            "placeholder": "",
            "prepend": "",
            "append": "",
            "maxlength": ""
        },
        {
            "key": "field_58a523529d8e8",
            "label": "Dramaturgy by",
            "name": "dramaturgy_by",
            "type": "text",
            "instructions": "",
            "required": 0,
            "conditional_logic": 0,
            "wrapper": {
                "width": "50",
                "class": "",
                "id": ""
            },
            "default_value": "",
            "placeholder": "",
            "prepend": "",
            "append": "",
            "maxlength": ""
        },
        {
            "key": "field_58a523609d8e9",
            "label": "Dialect Work by",
            "name": "dialect_work_by",
            "type": "text",
            "instructions": "",
            "required": 0,
            "conditional_logic": 0,
            "wrapper": {
                "width": "50",
                "class": "",
                "id": ""
            },
            "default_value": "",
            "placeholder": "",
            "prepend": "",
            "append": "",
            "maxlength": ""
        },
        {
            "key": "field_58a5236f9d8ea",
            "label": "Casting by",
            "name": "casting_by",
            "type": "text",
            "instructions": "",
            "required": 0,
            "conditional_logic": 0,
            "wrapper": {
                "width": "50",
                "class": "",
                "id": ""
            },
            "default_value": "",
            "placeholder": "",
            "prepend": "",
            "append": "",
            "maxlength": ""
        },
        {
            "key": "field_58a523799d8eb",
            "label": "Stage Managed by",
            "name": "stage_managed_by",
            "type": "text",
            "instructions": "",
            "required": 0,
            "conditional_logic": 0,
            "wrapper": {
                "width": "50",
                "class": "",
                "id": ""
            },
            "default_value": "",
            "placeholder": "",
            "prepend": "",
            "append": "",
            "maxlength": ""
        },
        {
            "key": "field_58cc5a4a4108b",
            "label": "Extra Event Info",
            "name": "extra_event_info",
            "type": "repeater",
            "instructions": "",
            "required": 0,
            "conditional_logic": 0,
            "wrapper": {
                "width": "",
                "class": "",
                "id": ""
            },
            "collapsed": "",
            "min": 0,
            "max": 0,
            "layout": "table",
            "button_label": "",
            "sub_fields": [
                {
                    "key": "field_58cc5a5d4108c",
                    "label": "Title",
                    "name": "title",
                    "type": "text",
                    "instructions": "",
                    "required": 0,
                    "conditional_logic": 0,
                    "wrapper": {
                        "width": "50",
                        "class": "",
                        "id": ""
                    },
                    "default_value": "",
                    "placeholder": "",
                    "prepend": "",
                    "append": "",
                    "maxlength": ""
                },
                {
                    "key": "field_58cc5a874108d",
                    "label": "Persons Name",
                    "name": "persons_name",
                    "type": "text",
                    "instructions": "",
                    "required": 0,
                    "conditional_logic": 0,
                    "wrapper": {
                        "width": "50",
                        "class": "",
                        "id": ""
                    },
                    "default_value": "",
                    "placeholder": "",
                    "prepend": "",
                    "append": "",
                    "maxlength": ""
                }
            ]
        },
        {
            "key": "field_58a52d7f9d8f6",
            "label": "Production Description",
            "name": "",
            "type": "tab",
            "instructions": "",
            "required": 0,
            "conditional_logic": 0,
            "wrapper": {
                "width": "",
                "class": "",
                "id": ""
            },
            "placement": "left",
            "endpoint": 0
        },
        {
            "key": "field_58a52d969d8f7",
            "label": "Descrption",
            "name": "descrption_main",
            "type": "textarea",
            "instructions": "",
            "required": 0,
            "conditional_logic": 0,
            "wrapper": {
                "width": "",
                "class": "",
                "id": ""
            },
            "default_value": "",
            "placeholder": "",
            "maxlength": "",
            "rows": "",
            "new_lines": "wpautop"
        },
        {
            "key": "field_58a523879d8ec",
            "label": "Reviews",
            "name": "",
            "type": "tab",
            "instructions": "",
            "required": 0,
            "conditional_logic": 0,
            "wrapper": {
                "width": "",
                "class": "",
                "id": ""
            },
            "placement": "top",
            "endpoint": 0
        },
        {
            "key": "field_58a523979d8ed",
            "label": "Reviews",
            "name": "reviews_production",
            "type": "repeater",
            "instructions": "",
            "required": 0,
            "conditional_logic": 0,
            "wrapper": {
                "width": "",
                "class": "",
                "id": ""
            },
            "collapsed": "",
            "min": 0,
            "max": 0,
            "layout": "table",
            "button_label": "",
            "sub_fields": [
                {
                    "key": "field_58a523a39d8ee",
                    "label": "Description",
                    "name": "description",
                    "type": "textarea",
                    "instructions": "",
                    "required": 0,
                    "conditional_logic": 0,
                    "wrapper": {
                        "width": "70",
                        "class": "",
                        "id": ""
                    },
                    "default_value": "",
                    "placeholder": "",
                    "maxlength": "",
                    "rows": "",
                    "new_lines": "wpautop"
                },
                {
                    "key": "field_58a523b29d8ef",
                    "label": "Reviewed By",
                    "name": "reviewed_by",
                    "type": "text",
                    "instructions": "",
                    "required": 0,
                    "conditional_logic": 0,
                    "wrapper": {
                        "width": "30",
                        "class": "",
                        "id": ""
                    },
                    "default_value": "",
                    "placeholder": "",
                    "prepend": "",
                    "append": "",
                    "maxlength": ""
                }
            ]
        },
        {
            "key": "field_58a523ca9d8f0",
            "label": "About the Writer",
            "name": "",
            "type": "tab",
            "instructions": "",
            "required": 0,
            "conditional_logic": 0,
            "wrapper": {
                "width": "",
                "class": "",
                "id": ""
            },
            "placement": "left",
            "endpoint": 0
        },
        {
            "key": "field_58a52cbc9d8f1",
            "label": "Writer Description",
            "name": "writer_description",
            "type": "textarea",
            "instructions": "",
            "required": 0,
            "conditional_logic": 0,
            "wrapper": {
                "width": "",
                "class": "",
                "id": ""
            },
            "default_value": "",
            "placeholder": "",
            "maxlength": "",
            "rows": "",
            "new_lines": "wpautop"
        },
        {
            "key": "field_58a52cca9d8f2",
            "label": "Featuring",
            "name": "",
            "type": "tab",
            "instructions": "",
            "required": 0,
            "conditional_logic": 0,
            "wrapper": {
                "width": "",
                "class": "",
                "id": ""
            },
            "placement": "left",
            "endpoint": 0
        },
        {
            "key": "field_58ab5283334bd",
            "label": "Production Actors",
            "name": "production_actors",
            "type": "relationship",
            "instructions": "",
            "required": 0,
            "conditional_logic": 0,
            "wrapper": {
                "width": "",
                "class": "",
                "id": ""
            },
            "post_type": [
                "actor"
            ],
            "taxonomy": [],
            "filters": [
                "search",
                "post_type",
                "taxonomy"
            ],
            "elements": "",
            "min": "",
            "max": "",
            "return_format": "object"
        },
        {
            "key": "field_58e7ff696aab9",
            "label": "Slider",
            "name": "",
            "type": "tab",
            "instructions": "",
            "required": 0,
            "conditional_logic": 0,
            "wrapper": {
                "width": "",
                "class": "",
                "id": ""
            },
            "placement": "left",
            "endpoint": 0
        },
        {
            "key": "field_58e800068eadd",
            "label": "Slides",
            "name": "slides",
            "type": "flexible_content",
            "instructions": "",
            "required": 0,
            "conditional_logic": 0,
            "wrapper": {
                "width": "",
                "class": "",
                "id": ""
            },
            "button_label": "Add Slide Type",
            "min": "",
            "max": "",
            "layouts": [
                {
                    "key": "58e800542b83d",
                    "name": "single_image",
                    "label": "Single Image",
                    "display": "block",
                    "sub_fields": [
                        {
                            "key": "field_58e800838eadf",
                            "label": "Image",
                            "name": "image",
                            "type": "image_crop",
                            "instructions": "",
                            "required": 0,
                            "conditional_logic": 0,
                            "wrapper": {
                                "width": "",
                                "class": "",
                                "id": ""
                            },
                            "crop_type": "hard",
                            "target_size": "custom",
                            "width": 1000,
                            "height": 610,
                            "preview_size": "medium",
                            "force_crop": "yes",
                            "save_in_media_library": "yes",
                            "retina_mode": "no",
                            "save_format": "object",
                            "library": "all"
                        }
                    ],
                    "min": "",
                    "max": ""
                },
                {
                    "key": "58e800dd8eae0",
                    "name": "double_image",
                    "label": "Double Image",
                    "display": "block",
                    "sub_fields": [
                        {
                            "key": "field_58e800e68eae1",
                            "label": "Image Left",
                            "name": "image_left",
                            "type": "image_crop",
                            "instructions": "",
                            "required": 0,
                            "conditional_logic": 0,
                            "wrapper": {
                                "width": "50",
                                "class": "",
                                "id": ""
                            },
                            "crop_type": "hard",
                            "target_size": "custom",
                            "width": 500,
                            "height": 610,
                            "preview_size": "medium",
                            "force_crop": "yes",
                            "save_in_media_library": "yes",
                            "retina_mode": "no",
                            "save_format": "object",
                            "library": "all"
                        },
                        {
                            "key": "field_58e801108eae2",
                            "label": "Image Right",
                            "name": "image_right",
                            "type": "image_crop",
                            "instructions": "",
                            "required": 0,
                            "conditional_logic": 0,
                            "wrapper": {
                                "width": "50",
                                "class": "",
                                "id": ""
                            },
                            "crop_type": "hard",
                            "target_size": "custom",
                            "width": 500,
                            "height": 610,
                            "preview_size": "medium",
                            "force_crop": "yes",
                            "save_in_media_library": "yes",
                            "retina_mode": "no",
                            "save_format": "object",
                            "library": "all"
                        }
                    ],
                    "min": "",
                    "max": ""
                }
            ]
        },
        {
            "key": "field_58ed4819309d7",
            "label": "Featured Images",
            "name": "",
            "type": "tab",
            "instructions": "",
            "required": 0,
            "conditional_logic": 0,
            "wrapper": {
                "width": "",
                "class": "",
                "id": ""
            },
            "placement": "left",
            "endpoint": 0
        },
        {
            "key": "field_58ed482e309d8",
            "label": "Home Page",
            "name": "home_page_featured",
            "type": "image_crop",
            "instructions": "used if going to be in the home page slider",
            "required": 0,
            "conditional_logic": 0,
            "wrapper": {
                "width": "",
                "class": "",
                "id": ""
            },
            "crop_type": "hard",
            "target_size": "custom",
            "width": 470,
            "height": 355,
            "preview_size": "medium",
            "force_crop": "yes",
            "save_in_media_library": "yes",
            "retina_mode": "no",
            "save_format": "object",
            "library": "all"
        },
        {
            "key": "field_58ed49cd309d9",
            "label": "Featured Image",
            "name": "featured_image_top",
            "type": "image_crop",
            "instructions": "",
            "required": 0,
            "conditional_logic": 0,
            "wrapper": {
                "width": "",
                "class": "",
                "id": ""
            },
            "crop_type": "hard",
            "target_size": "custom",
            "width": 1030,
            "height": 450,
            "preview_size": "medium",
            "force_crop": "yes",
            "save_in_media_library": "yes",
            "retina_mode": "no",
            "save_format": "object",
            "library": "all"
        }
    ],
    "location": [
        [
            {
                "param": "post_type",
                "operator": "==",
                "value": "production"
            }
        ]
    ],
    "menu_order": 0,
    "position": "acf_after_title",
    "style": "default",
    "label_placement": "top",
    "instruction_placement": "label",
    "hide_on_screen": "",
    "active": 1,
    "description": "",
    "modified": 1491945976
}